#scenarios donnes dans pas de temps qu on veut: il y a ensuite un petit programme de conversion pour passer en pas de temps de la simu


SCENARIOTEMP<-list(
Celsius=c(7,5,5,6,6,6,7,6,6,7,8,8,9,9,8,9,12,12,12,11,9,10,9,7,7,6,8,7,7,6,7,7,9,9,9,11,10,8,10,10,10,9,8,7,7,6,9,11,12,10,10,11,13,12,13,12,11,12,14,13,13,12,10,9,9,10,11,10,12,12,13,12,13,15,14,14,14,13,12,12,12,12,11,13,13,13,14,14,12,12,14,16,15,14,16,18,15,14,17,17,17,18,19,19,19,17,17,17,19,19,18,20,20,22,21,20,22,22,20,19,19,19,18,19,17,19,21,21,20,22,17,19,21,18,18,19,18,20,19,20,23,22,24,28,28,21,18,19,20,21,19,20,23,23,23,23,21,21,21,22,24,24,21,23,23,21,22,23,23,22,21,22,23,24,26,26,24,25,26,26,28,30,29,25,25,24,24,24,24,24,24,25,25,26,27,28,26,23,24,26,25,26,26,24,26,25,26,26,27,25,26,28,26,24,25,26,28,29,25,22,25,24,24,25,23,24,24,23,23,25,26,25,25,24,24,23,24,26,24,21,22,23,24,23,23,20,20,21,22,23,24,23,23,23,21,21,21,20,21,19,19,21,22,22,23,21,19,18,17,19,18,19,19,20,19,19,18,18,20,23,20,20,19,18,18,18,17,15,16,13,14,14,15,14,14,14,14,13,14,15,14,13,12,14,15,14,16,15,14,13,12,11,11,12,14,12,14,13,12,12,11,10,11,13,13,11,10,10,9,9,8,6,8,6,7,8,8,9,10,10,9,7,9,9,8,6,5,3,4,3,4,4,5,11,8,7,7,8,6,5,5,5,9,7,6),
GDD=c(4.8,2.9,3.0,3.6,4.9,3.9,3.8,4.0,4.6,4.6,5.3,5.9,6.8,7.1,6.1,7.0,9.6,9.6,10.1,8.5,7.3,7.3,6.5,5.9,4.4,3.8,4.5,4.9,4.9,4.5,4.8,5.3,6.1,6.4,6.4,8.3,7.9,5.5,6.1,6.1,6.6,6.1,5.6,4.8,4.3,3.8,5.5,7.9,8.1,7.3,8.0,8.6,9.9,10.5,10.0,10.1,9.4,9.1,10.9,11.0,10.5,9.1,7.1,5.8,6.6,7.1,7.6,7.1,8.0,8.8,9.5,9.5,10.5,11.0,10.1,10.5,10.1,9.6,8.9,8.6,8.4,7.9,7.9,9.9,9.9,10.4,10.5,10.6,8.8,9.0,10.9,12.4,11.5,10.3,11.3,12.6,11.3,10.3,12.9,13.5,13.1,13.3,14.5,14.5,15.0,13.4,12.5,13.0,14.6,14.5,14.1,14.9,15.4,17.0,16.6,16.0,17.1,16.8,16.0,15.3,16.3,14.3,14.3,14.4,13.8,14.4,16.1,16.6,16.9,17.4,14.9,15.6,17.0,15.5,14.4,15.1,15.0,16.0,15.3,15.5,18.1,18.0,18.8,22.3,22.8,17.8,14.6,15.6,16.3,17.0,16.5,17.4,18.5,18.4,18.4,19.3,17.8,16.8,17.5,18.6,19.6,19.5,18.0,18.3,19.9,17.8,17.4,18.6,19.1,18.5,17.1,18.4,18.9,19.4,21.0,21.1,20.4,20.4,21.8,21.9,22.9,25.8,24.4,20.8,20.1,20.6,19.6,19.8,20.3,20.1,20.1,21.3,20.5,21.5,22.0,22.5,22.1,19.3,19.9,21.6,21.3,21.3,20.9,20.0,20.9,20.8,21.3,21.9,22.6,20.6,21.1,23.1,22.9,20.3,20.5,21.5,23.3,23.8,21.3,19.1,20.5,20.3,20.6,20.8,19.5,20.0,20.4,19.6,19.3,20.3,20.9,21.0,20.9,20.9,20.4,19.3,19.8,21.6,20.1,18.0,17.8,18.4,20.4,20.5,18.6,17.3,16.4,17.3,18.5,18.8,19.4,19.4,19.1,18.9,17.1,16.5,17.4,16.5,17.1,15.6,15.3,16.3,17.1,17.3,18.1,17.5,16.6,14.8,13.6,14.5,15.4,16.0,15.5,17.0,15.9,16.0,15.3,15.4,17.1,18.6,17.0,16.4,15.8,14.8,14.4,14.5,13.4,12.5,12.9,11.0,11.0,10.9,11.0,11.3,11.3,10.4,10.6,11.0,11.6,11.9,11.4,10.4,9.8,11.0,12.5,11.3,13.3,13.1,12.1,10.8,9.5,8.5,9.3,10.1,10.0,10.1,12.1,10.9,9.9,9.5,8.3,8.1,8.6,11.1,10.6,8.6,7.5,7.9,6.9,7.1,6.1,4.4,4.9,4.6,6.0,5.9,6.1,6.4,8.4,8.5,6.4,5.1,6.9,6.8,6.3,3.9,2.3,1.9,1.8,1.6,1.9,2.1,2.6,5.9,4.9,5.5,4.8,4.5,3.9,3.1,3.1,3.4,6.0,5.8,4.1),
timestep="day", wrap=TRUE)  #scenario de temperature de mosaic-pest


SCENARIORAIN<-list(mm=c(0.00, 0.00, 0.00, 0.00, 0.00, 0.00, 0.00, 0.00, 0.00, 0.00, 0.00, 0.00, 0.00, 0.00, 0.00, 0.00, 0.00, 0.00, 1.07, 0.10, 0.03, 0.15, 0.00, 0.00, 0.00, 0.00, 0.00, 0.00, 0.00, 0.00, 0.00, 0.00, 0.00, 0.00, 0.00, 0.00, 0.00, 0.00, 0.00, 0.00, 0.05, 0.00, 0.00, 0.00, 0.20, 0.30, 0.00, 1.17, 0.69, 0.10, 0.43, 1.35, 0.03, 0.46, 0.00, 0.00, 0.08, 0.05, 0.00, 0.00, 0.15, 3.99, 0.05, 0.79, 0.03, 0.00, 0.05, 0.74, 0.33, 0.05, 0.10, 0.03, 0.00, 0.00, 0.00, 0.00, 0.00, 0.00, 0.00, 0.00, 0.03, 0.03, 0.46, 0.00, 0.79, 0.41, 0.51, 0.15, 0.25, 0.00, 0.53, 0.00, 0.15, 0.15, 0.00, 0.00, 0.00, 0.00, 0.00, 0.00, 0.00, 0.00, 0.00, 0.03, 0.00, 0.00, 0.10, 0.13, 0.00, 0.00, 0.00, 0.00, 0.00, 0.00, 0.66, 0.28, 0.00, 0.03, 0.00, 0.00, 0.00, 1.12, 0.03, 0.03, 0.00, 0.00, 0.00, 0.41, 0.03, 1.09, 0.41, 0.10, 0.00, 0.00, 0.03, 0.00, 0.00, 0.00, 0.00, 0.05, 0.05, 0.84, 0.46, 0.05, 0.00, 0.05, 0.08, 0.03, 0.03, 0.00, 0.18, 0.00, 0.10, 0.13, 0.00, 0.00, 0.00, 0.00, 0.00, 0.00, 0.00, 0.00, 0.00, 0.00, 0.00, 0.00, 0.08, 0.33, 0.00, 0.00, 0.00, 0.00, 0.00, 0.03, 0.00, 0.00, 0.00, 0.94, 0.00, 0.00, 0.00, 0.00, 0.00, 0.00, 0.00, 0.00, 0.00, 0.28, 0.00, 0.91, 0.13, 0.03, 0.00, 0.00, 0.00, 0.00, 0.00, 0.00, 0.00, 0.00, 0.00, 0.00, 0.46, 0.00, 0.05, 0.00, 0.00, 0.00, 0.63, 0.43, 0.00, 0.00, 0.63, 0.00, 0.05, 0.00, 0.15, 0.00, 0.00, 0.00, 0.08, 0.00, 0.03, 0.00, 0.00, 0.53, 1.80, 0.10, 0.00, 0.30, 0.74, 0.23, 0.00, 0.05, 0.28, 0.00, 0.00, 0.23, 0.00, 0.15, 0.00, 0.41, 0.18, 0.00, 0.00, 0.00, 0.00, 0.00, 0.00, 0.00, 0.00, 0.00, 0.00, 0.00, 0.00, 0.00, 0.00, 0.00, 1.30, 0.10, 0.00, 0.00, 0.10, 0.00, 0.00, 0.00, 0.10, 1.12, 0.15, 0.13, 0.00, 0.00, 0.00, 0.03, 0.58, 0.03, 0.18, 0.58, 0.00, 0.00, 1.09, 1.24, 0.00, 0.03, 0.00, 0.00, 0.00, 0.23, 0.00, 0.00, 0.00, 0.00, 0.20, 0.10, 0.08, 0.03, 0.36, 0.79, 0.20, 0.00, 0.00, 0.00, 0.00, 0.13, 0.00, 0.00, 0.00, 0.00, 0.00, 0.00, 0.00, 0.00, 0.00, 0.00, 0.00, 0.00, 0.15, 0.08, 0.05, 0.00, 0.00, 0.38, 0.00, 0.30, 1.24, 1.19, 0.08, 0.10, 0.66, 0.38, 0.03, 0.00, 0.00, 0.13, 0.00, 0.00, 0.00, 0.03, 0.46, 0.51, 0.94, 0.00, 0.51, 2.16, 0.05, 0.00, 0.66, 0.10, 0.00, 0.00, 0.00, 0.00, 0.00, 0.00, 0.00, 0.00, 0.00, 0.00, 0.00, 0.00, 0.00, 0.00, 0.00, 0.56, 0.58), timestep="day", wrap=TRUE) #scenario de pluie de mosaic-pest



############ autres exemples de scenarios
#SCENARIORAIN<-list(mm=rep(60, 12), timestep="month", wrap=TRUE) #mm par m2 et par mois
#SCENARIOWIND<-list(mpars=c(8, 10, 12, 13, 14, 15, 16, 17, 18, 19, 20, 21),
#	 degre=rep(c(0,180),6), timestep="month", wrap=TRUE) #vitesse du vent en m par seconde et direction du vent en degres
#SCENARIORAY<-list(Joule=c(100, 200, 100, 300, 500, 1000, 800, 800, 600, 400, 200, 100), timestep="month", wrap=TRUE) #Joules par m2 et par mois
#SCENARIOTEMP<-list(Celsius=c(8, 10, 12, 15, 16, 20, 22, 22, 18, 15, 10, 8), timestep="month", wrap=TRUE)

SCENARIOWIND<-list(mpars=rep(15,360),
	 degre=rep(10*0:36,10), timestep="day", wrap=TRUE) #vitesse du vent en m par seconde et direction du vent en degres